31	153	2
48	181	5
50	156 8
59	109 11
64	58	19
106	158	3
103	108	16
107	59	28
131	199	4
131	138	9
149	102	35
159	126	24
168	138	27
170	186	17
201	53	41
214	161	29
222	163	31
223	103	45
256	146	33
258	38	23